Visualising in R
…
```r
tb_au <- filter(
  tb, country == "Australia"
  )
tb_au
```

]]

--

.column[.content.vmiddle[

```
## # A tibble: 47,866 x 6
##    country     iso3   year count gender age_group
##    <chr>       <chr> <dbl> <dbl> <fct>  <fct>    
##  1 Afghanistan AFG    1997    10 M      15-24    
##  2 Afghanistan AFG    1998   129 M      15-24    
##  3 Afghanistan AFG    1999    55 M      15-24    
##  4 Afghanistan AFG    2000   228 M      15-24    
##  5 Afghanistan AFG    2001   379 M      15-24    
##  6 Afghanistan AFG    2002   476 M      15-24    
##  7 Afghanistan AFG    2003   511 M      15-24    
##  8 Afghanistan AFG    2004   537 M      15-24    
##  9 Afghanistan AFG    2005   606 M      15-24    
## 10 Afghanistan AFG    2006   837 M      15-24    
## # … with 47,856 more rows
```
…
